S4 - v2 - Dist/simulation/qsim/StackMachine_sim.msim.vcd
$comment
	File created using the following command:
		vcd file StackMachine_sim.msim.vcd -direction
$end
$date
	Fri Nov 11 15:10:57 2022
$end
$version
	ModelSim Version 2020.1
$end
$timescale
	1ps
$end

$scope module StackMachine_sim_vlg_vec_tst $end
$var reg 1 ! MCLK $end
$var reg 1 " RESET $end
$var wire 1 # A [15] $end
$var wire 1 $ A [14] $end
$var wire 1 % A [13] $end
$var wire 1 & A [12] $end
$var wire 1 ' A [11] $end
$var wire 1 ( A [10] $end
$var wire 1 ) A [9] $end
$var wire 1 * A [8] $end
$var wire 1 + A [7] $end
$var wire 1 , A [6] $end
$var wire 1 - A [5] $end
$var wire 1 . A [4] $end
$var wire 1 / A [3] $end
$var wire 1 0 A [2] $end
$var wire 1 1 A [1] $end
$var wire 1 2 A [0] $end
$var wire 1 3 AC [15] $end
$var wire 1 4 AC [14] $end
$var wire 1 5 AC [13] $end
$var wire 1 6 AC [12] $end
$var wire 1 7 AC [11] $end
$var wire 1 8 AC [10] $end
$var wire 1 9 AC [9] $end
$var wire 1 : AC [8] $end
$var wire 1 ; AC [7] $end
$var wire 1 < AC [6] $end
$var wire 1 = AC [5] $end
$var wire 1 > AC [4] $end
$var wire 1 ? AC [3] $end
$var wire 1 @ AC [2] $end
$var wire 1 A AC [1] $end
$var wire 1 B AC [0] $end
$var wire 1 C ALU_OP [2] $end
$var wire 1 D ALU_OP [1] $end
$var wire 1 E ALU_OP [0] $end
$var wire 1 F ARD $end
$var wire 1 G AWR $end
$var wire 1 H CLR_A $end
$var wire 1 I CNT_PC $end
$var wire 1 J DEC_A $end
$var wire 1 K DEC_XR $end
$var wire 1 L DI [15] $end
$var wire 1 M DI [14] $end
$var wire 1 N DI [13] $end
$var wire 1 O DI [12] $end
$var wire 1 P DI [11] $end
$var wire 1 Q DI [10] $end
$var wire 1 R DI [9] $end
$var wire 1 S DI [8] $end
$var wire 1 T DI [7] $end
$var wire 1 U DI [6] $end
$var wire 1 V DI [5] $end
$var wire 1 W DI [4] $end
$var wire 1 X DI [3] $end
$var wire 1 Y DI [2] $end
$var wire 1 Z DI [1] $end
$var wire 1 [ DI [0] $end
$var wire 1 \ DO [15] $end
$var wire 1 ] DO [14] $end
$var wire 1 ^ DO [13] $end
$var wire 1 _ DO [12] $end
$var wire 1 ` DO [11] $end
$var wire 1 a DO [10] $end
$var wire 1 b DO [9] $end
$var wire 1 c DO [8] $end
$var wire 1 d DO [7] $end
$var wire 1 e DO [6] $end
$var wire 1 f DO [5] $end
$var wire 1 g DO [4] $end
$var wire 1 h DO [3] $end
$var wire 1 i DO [2] $end
$var wire 1 j DO [1] $end
$var wire 1 k DO [0] $end
$var wire 1 l INC_A $end
$var wire 1 m INC_XR $end
$var wire 1 n IR [15] $end
$var wire 1 o IR [14] $end
$var wire 1 p IR [13] $end
$var wire 1 q IR [12] $end
$var wire 1 r IR [11] $end
$var wire 1 s IR [10] $end
$var wire 1 t IR [9] $end
$var wire 1 u IR [8] $end
$var wire 1 v IR [7] $end
$var wire 1 w IR [6] $end
$var wire 1 x IR [5] $end
$var wire 1 y IR [4] $end
$var wire 1 z IR [3] $end
$var wire 1 { IR [2] $end
$var wire 1 | IR [1] $end
$var wire 1 } IR [0] $end
$var wire 1 ~ LD_A $end
$var wire 1 !! LD_FP $end
$var wire 1 "! LD_IR $end
$var wire 1 #! LD_MAR $end
$var wire 1 $! LD_MDR $end
$var wire 1 %! LD_PC $end
$var wire 1 &! LD_SP $end
$var wire 1 '! LD_XR $end
$var wire 1 (! OE_AA $end
$var wire 1 )! OE_AD $end
$var wire 1 *! OE_FP $end
$var wire 1 +! OE_IRL $end
$var wire 1 ,! OE_MAR $end
$var wire 1 -! OE_MDR $end
$var wire 1 .! OE_MR $end
$var wire 1 /! OE_PC $end
$var wire 1 0! OE_RAM $end
$var wire 1 1! OE_ROM $end
$var wire 1 2! OE_SP $end
$var wire 1 3! OE_XR $end
$var wire 1 4! PC [15] $end
$var wire 1 5! PC [14] $end
$var wire 1 6! PC [13] $end
$var wire 1 7! PC [12] $end
$var wire 1 8! PC [11] $end
$var wire 1 9! PC [10] $end
$var wire 1 :! PC [9] $end
$var wire 1 ;! PC [8] $end
$var wire 1 <! PC [7] $end
$var wire 1 =! PC [6] $end
$var wire 1 >! PC [5] $end
$var wire 1 ?! PC [4] $end
$var wire 1 @! PC [3] $end
$var wire 1 A! PC [2] $end
$var wire 1 B! PC [1] $end
$var wire 1 C! PC [0] $end
$var wire 1 D! PD_SP $end
$var wire 1 E! PL_SP $end
$var wire 1 F! RD $end
$var wire 1 G! RES [15] $end
$var wire 1 H! RES [14] $end
$var wire 1 I! RES [13] $end
$var wire 1 J! RES [12] $end
$var wire 1 K! RES [11] $end
$var wire 1 L! RES [10] $end
$var wire 1 M! RES [9] $end
$var wire 1 N! RES [8] $end
$var wire 1 O! RES [7] $end
$var wire 1 P! RES [6] $end
$var wire 1 Q! RES [5] $end
$var wire 1 R! RES [4] $end
$var wire 1 S! RES [3] $end
$var wire 1 T! RES [2] $end
$var wire 1 U! RES [1] $end
$var wire 1 V! RES [0] $end
$var wire 1 W! SCLK $end
$var wire 1 X! WE_MR $end
$var wire 1 Y! WE_RAM $end
$var wire 1 Z! WR $end

$scope module i1 $end
$var wire 1 [! gnd $end
$var wire 1 \! vcc $end
$var wire 1 ]! unknown $end
$var tri1 1 ^! devclrn $end
$var tri1 1 _! devpor $end
$var tri1 1 `! devoe $end
$var wire 1 a! ~QUARTUS_CREATED_GND~I_combout $end
$var wire 1 b! MCLK~input_o $end
$var wire 1 c! MCLK~inputCLKENA0_outclk $end
$var wire 1 d! inst9~0_combout $end
$var wire 1 e! RESET~input_o $end
$var wire 1 f! inst9~q $end
$var wire 1 g! inst|inst5|CLUState.Decode~feeder_combout $end
$var wire 1 h! inst|inst5|CLUState.Decode~q $end
$var wire 1 i! inst|inst5|WideNor0~combout $end
$var wire 1 j! inst|inst5|CLUState.Zero~q $end
$var wire 1 k! inst|inst5|CLUState.Fetch~0_combout $end
$var wire 1 l! inst|inst5|CLUState.Fetch~q $end
$var wire 1 m! inst|inst2|51|IDLE~0_combout $end
$var wire 1 n! inst|inst2|51|IDLE~q $end
$var wire 1 o! inst|inst2|51|READING~0_combout $end
$var wire 1 p! inst|inst2|51|READING~q $end
$var wire 1 q! inst|inst5|CLUState.Fetch~_wirecell_combout $end
$var wire 1 r! inst|inst2|47|lpm_ff_component|dffs[15]~feeder_combout $end
$var wire 1 s! inst|inst2|47|lpm_ff_component|dffs[14]~feeder_combout $end
$var wire 1 t! inst|inst2|47|lpm_ff_component|dffs[13]~feeder_combout $end
$var wire 1 u! inst|inst2|47|lpm_ff_component|dffs[11]~feeder_combout $end
$var wire 1 v! inst|inst2|47|lpm_ff_component|dffs[9]~feeder_combout $end
$var wire 1 w! inst|inst2|47|lpm_ff_component|dffs[8]~feeder_combout $end
$var wire 1 x! inst|inst2|47|lpm_ff_component|dffs[7]~feeder_combout $end
$var wire 1 y! inst|inst2|47|lpm_ff_component|dffs[6]~feeder_combout $end
$var wire 1 z! inst|inst2|47|lpm_ff_component|dffs[5]~feeder_combout $end
$var wire 1 {! inst|inst2|47|lpm_ff_component|dffs[3]~feeder_combout $end
$var wire 1 |! inst|inst2|47|lpm_ff_component|dffs[2]~feeder_combout $end
$var wire 1 }! inst|inst2|47|lpm_ff_component|dffs[1]~feeder_combout $end
$var wire 1 ~! inst|inst1|inst8|IR16|lpm_ff_component|dffs[15]~feeder_combout $end
$var wire 1 !" inst|inst1|inst8|IR16|lpm_ff_component|dffs[14]~feeder_combout $end
$var wire 1 "" inst|inst1|inst8|IR16|lpm_ff_component|dffs[13]~feeder_combout $end
$var wire 1 #" inst|inst1|inst8|IR16|lpm_ff_component|dffs[12]~feeder_combout $end
$var wire 1 $" inst|inst1|inst8|IR16|lpm_ff_component|dffs[11]~feeder_combout $end
$var wire 1 %" inst|inst1|inst8|IR16|lpm_ff_component|dffs[9]~feeder_combout $end
$var wire 1 &" inst|inst1|inst8|IR16|lpm_ff_component|dffs[8]~feeder_combout $end
$var wire 1 '" inst|inst1|inst8|IR16|lpm_ff_component|dffs[6]~feeder_combout $end
$var wire 1 (" inst|inst1|inst8|IR16|lpm_ff_component|dffs[5]~feeder_combout $end
$var wire 1 )" inst|inst1|inst8|IR16|lpm_ff_component|dffs[4]~feeder_combout $end
$var wire 1 *" inst|inst1|inst8|IR16|lpm_ff_component|dffs[3]~feeder_combout $end
$var wire 1 +" inst|inst1|inst8|IR16|lpm_ff_component|dffs[2]~feeder_combout $end
$var wire 1 ," inst|inst1|inst8|IR16|lpm_ff_component|dffs[1]~feeder_combout $end
$var wire 1 -" inst2|altsyncram_component|auto_generated|q_a [15] $end
$var wire 1 ." inst2|altsyncram_component|auto_generated|q_a [14] $end
$var wire 1 /" inst2|altsyncram_component|auto_generated|q_a [13] $end
$var wire 1 0" inst2|altsyncram_component|auto_generated|q_a [12] $end
$var wire 1 1" inst2|altsyncram_component|auto_generated|q_a [11] $end
$var wire 1 2" inst2|altsyncram_component|auto_generated|q_a [10] $end
$var wire 1 3" inst2|altsyncram_component|auto_generated|q_a [9] $end
$var wire 1 4" inst2|altsyncram_component|auto_generated|q_a [8] $end
$var wire 1 5" inst2|altsyncram_component|auto_generated|q_a [7] $end
$var wire 1 6" inst2|altsyncram_component|auto_generated|q_a [6] $end
$var wire 1 7" inst2|altsyncram_component|auto_generated|q_a [5] $end
$var wire 1 8" inst2|altsyncram_component|auto_generated|q_a [4] $end
$var wire 1 9" inst2|altsyncram_component|auto_generated|q_a [3] $end
$var wire 1 :" inst2|altsyncram_component|auto_generated|q_a [2] $end
$var wire 1 ;" inst2|altsyncram_component|auto_generated|q_a [1] $end
$var wire 1 <" inst2|altsyncram_component|auto_generated|q_a [0] $end
$var wire 1 =" inst|inst1|inst8|IR16|lpm_ff_component|dffs [15] $end
$var wire 1 >" inst|inst1|inst8|IR16|lpm_ff_component|dffs [14] $end
$var wire 1 ?" inst|inst1|inst8|IR16|lpm_ff_component|dffs [13] $end
$var wire 1 @" inst|inst1|inst8|IR16|lpm_ff_component|dffs [12] $end
$var wire 1 A" inst|inst1|inst8|IR16|lpm_ff_component|dffs [11] $end
$var wire 1 B" inst|inst1|inst8|IR16|lpm_ff_component|dffs [10] $end
$var wire 1 C" inst|inst1|inst8|IR16|lpm_ff_component|dffs [9] $end
$var wire 1 D" inst|inst1|inst8|IR16|lpm_ff_component|dffs [8] $end
$var wire 1 E" inst|inst1|inst8|IR16|lpm_ff_component|dffs [7] $end
$var wire 1 F" inst|inst1|inst8|IR16|lpm_ff_component|dffs [6] $end
$var wire 1 G" inst|inst1|inst8|IR16|lpm_ff_component|dffs [5] $end
$var wire 1 H" inst|inst1|inst8|IR16|lpm_ff_component|dffs [4] $end
$var wire 1 I" inst|inst1|inst8|IR16|lpm_ff_component|dffs [3] $end
$var wire 1 J" inst|inst1|inst8|IR16|lpm_ff_component|dffs [2] $end
$var wire 1 K" inst|inst1|inst8|IR16|lpm_ff_component|dffs [1] $end
$var wire 1 L" inst|inst1|inst8|IR16|lpm_ff_component|dffs [0] $end
$var wire 1 M" inst|inst2|47|lpm_ff_component|dffs [15] $end
$var wire 1 N" inst|inst2|47|lpm_ff_component|dffs [14] $end
$var wire 1 O" inst|inst2|47|lpm_ff_component|dffs [13] $end
$var wire 1 P" inst|inst2|47|lpm_ff_component|dffs [12] $end
$var wire 1 Q" inst|inst2|47|lpm_ff_component|dffs [11] $end
$var wire 1 R" inst|inst2|47|lpm_ff_component|dffs [10] $end
$var wire 1 S" inst|inst2|47|lpm_ff_component|dffs [9] $end
$var wire 1 T" inst|inst2|47|lpm_ff_component|dffs [8] $end
$var wire 1 U" inst|inst2|47|lpm_ff_component|dffs [7] $end
$var wire 1 V" inst|inst2|47|lpm_ff_component|dffs [6] $end
$var wire 1 W" inst|inst2|47|lpm_ff_component|dffs [5] $end
$var wire 1 X" inst|inst2|47|lpm_ff_component|dffs [4] $end
$var wire 1 Y" inst|inst2|47|lpm_ff_component|dffs [3] $end
$var wire 1 Z" inst|inst2|47|lpm_ff_component|dffs [2] $end
$var wire 1 [" inst|inst2|47|lpm_ff_component|dffs [1] $end
$var wire 1 \" inst|inst2|47|lpm_ff_component|dffs [0] $end
$var wire 1 ]" inst2|altsyncram_component|auto_generated|ram_block1a14_PORTADATAOUT_bus [1] $end
$var wire 1 ^" inst2|altsyncram_component|auto_generated|ram_block1a14_PORTADATAOUT_bus [0] $end
$var wire 1 _" inst2|altsyncram_component|auto_generated|ram_block1a12_PORTADATAOUT_bus [1] $end
$var wire 1 `" inst2|altsyncram_component|auto_generated|ram_block1a12_PORTADATAOUT_bus [0] $end
$var wire 1 a" inst2|altsyncram_component|auto_generated|ram_block1a10_PORTADATAOUT_bus [1] $end
$var wire 1 b" inst2|altsyncram_component|auto_generated|ram_block1a10_PORTADATAOUT_bus [0] $end
$var wire 1 c" inst2|altsyncram_component|auto_generated|ram_block1a8_PORTADATAOUT_bus [1] $end
$var wire 1 d" inst2|altsyncram_component|auto_generated|ram_block1a8_PORTADATAOUT_bus [0] $end
$var wire 1 e" inst2|altsyncram_component|auto_generated|ram_block1a6_PORTADATAOUT_bus [1] $end
$var wire 1 f" inst2|altsyncram_component|auto_generated|ram_block1a6_PORTADATAOUT_bus [0] $end
$var wire 1 g" inst2|altsyncram_component|auto_generated|ram_block1a4_PORTADATAOUT_bus [1] $end
$var wire 1 h" inst2|altsyncram_component|auto_generated|ram_block1a4_PORTADATAOUT_bus [0] $end
$var wire 1 i" inst2|altsyncram_component|auto_generated|ram_block1a2_PORTADATAOUT_bus [1] $end
$var wire 1 j" inst2|altsyncram_component|auto_generated|ram_block1a2_PORTADATAOUT_bus [0] $end
$var wire 1 k" inst2|altsyncram_component|auto_generated|ram_block1a0_PORTADATAOUT_bus [1] $end
$var wire 1 l" inst2|altsyncram_component|auto_generated|ram_block1a0_PORTADATAOUT_bus [0] $end
$upscope $end
$upscope $end
$enddefinitions $end
#0
$dumpvars
0!
1"
z2
z1
z0
z/
z.
z-
z,
z+
z*
z)
z(
z'
z&
z%
z$
z#
0B
0A
0@
0?
0>
0=
0<
0;
0:
09
08
07
06
05
04
03
0E
0D
0C
0F
0G
0H
0I
0J
0K
z[
zZ
zY
zX
zW
zV
zU
zT
zS
zR
zQ
zP
zO
zN
zM
zL
zk
zj
zi
zh
zg
zf
ze
zd
zc
zb
za
z`
z_
z^
z]
z\
0l
0m
0}
0|
0{
0z
0y
0x
0w
0v
0u
0t
0s
0r
0q
0p
0o
0n
0~
0!!
0"!
0#!
0$!
0%!
0&!
0'!
0(!
0)!
0*!
0+!
0,!
0-!
1.!
0/!
00!
01!
02!
03!
0C!
0B!
0A!
0@!
0?!
0>!
0=!
0<!
0;!
0:!
09!
08!
07!
06!
05!
04!
0D!
0E!
0F!
zV!
zU!
zT!
zS!
zR!
zQ!
zP!
zO!
zN!
zM!
zL!
zK!
zJ!
zI!
zH!
zG!
0W!
0X!
0Y!
0Z!
0[!
1\!
x]!
1^!
1_!
1`!
0a!
0b!
0c!
1d!
1e!
0f!
1g!
0h!
1i!
0j!
1k!
0l!
0m!
0n!
0o!
0p!
1q!
0r!
0s!
0t!
0u!
0v!
0w!
0x!
0y!
0z!
0{!
0|!
0}!
0~!
0!"
0""
0#"
0$"
0%"
0&"
0'"
0("
0)"
0*"
0+"
0,"
0<"
0;"
0:"
09"
08"
07"
06"
05"
04"
03"
02"
01"
00"
0/"
0."
0-"
0L"
0K"
0J"
0I"
0H"
0G"
0F"
0E"
0D"
0C"
0B"
0A"
0@"
0?"
0>"
0="
0\"
0["
0Z"
0Y"
0X"
0W"
0V"
0U"
0T"
0S"
0R"
0Q"
0P"
0O"
0N"
0M"
0^"
0]"
0`"
0_"
0b"
0a"
0d"
0c"
0f"
0e"
0h"
0g"
0j"
0i"
0l"
0k"
$end
#500000
1!
1b!
1c!
#640000
0"
0e!
#1000000
0!
0b!
0c!
#1500000
1!
1b!
1c!
1f!
1W!
0d!
1j!
1l!
0.!
02
01
00
0/
0.
0-
0,
0+
0*
0)
0(
0'
0&
0%
0$
0#
0L
0M
0N
0O
0P
0Q
0R
0S
0T
0U
0V
0W
0X
0Y
0Z
0[
0G!
0H!
0I!
0J!
0K!
0L!
0M!
0N!
0O!
0P!
0Q!
0R!
0S!
0T!
0U!
0V!
11!
1F!
1/!
1"!
0q!
0k!
1o!
1m!
#2000000
0!
0b!
0c!
1n!
1p!
1F
0o!
0m!
#2500000
1!
1b!
1c!
0f!
0W!
1d!
#2500001
1d"
1c"
14"
13"
1R
1S
1v!
1w!
#3000000
0!
0b!
0c!
0n!
0p!
0F
1o!
1m!
1S"
1T"
1N!
1M!
1&"
1%"
#3500000
1!
1b!
1c!
1f!
1W!
0d!
1h!
1D"
1C"
0l!
1.!
z2
z1
z0
z/
z.
z-
z,
z+
z*
z)
z(
z'
z&
z%
z$
z#
zL
zM
zN
zO
zP
zQ
zR
zS
zT
zU
zV
zW
zX
zY
zZ
z[
zG!
zH!
zI!
zJ!
zK!
zL!
zM!
zN!
zO!
zP!
zQ!
zR!
zS!
zT!
zU!
zV!
01!
0F!
0/!
0"!
1t
1u
1q!
0o!
0m!
#4000000
0!
0b!
0c!
#4500000
1!
1b!
1c!
0f!
0W!
1d!
#5000000
0!
0b!
0c!
#5500000
1!
1b!
1c!
1f!
1W!
0d!
#6000000
0!
0b!
0c!
#6500000
1!
1b!
1c!
0f!
0W!
1d!
#7000000
0!
0b!
0c!
#7500000
1!
1b!
1c!
1f!
1W!
0d!
#8000000
0!
0b!
0c!
#8500000
1!
1b!
1c!
0f!
0W!
1d!
#9000000
0!
0b!
0c!
#9500000
1!
1b!
1c!
1f!
1W!
0d!
#10000000
0!
0b!
0c!
#10500000
1!
1b!
1c!
0f!
0W!
1d!
#11000000
0!
0b!
0c!
#11500000
1!
1b!
1c!
1f!
1W!
0d!
#12000000
0!
0b!
0c!
#12500000
1!
1b!
1c!
0f!
0W!
1d!
#13000000
0!
0b!
0c!
#13500000
1!
1b!
1c!
1f!
1W!
0d!
#14000000
0!
0b!
0c!
#14500000
1!
1b!
1c!
0f!
0W!
1d!
#15000000
0!
0b!
0c!
#15500000
1!
1b!
1c!
1f!
1W!
0d!
#16000000
0!
0b!
0c!
#16500000
1!
1b!
1c!
0f!
0W!
1d!
#17000000
0!
0b!
0c!
#17500000
1!
1b!
1c!
1f!
1W!
0d!
#18000000
0!
0b!
0c!
#18500000
1!
1b!
1c!
0f!
0W!
1d!
#19000000
0!
0b!
0c!
#19500000
1!
1b!
1c!
1f!
1W!
0d!
#20000000
0!
0b!
0c!
#20500000
1!
1b!
1c!
0f!
0W!
1d!
#21000000
0!
0b!
0c!
#21500000
1!
1b!
1c!
1f!
1W!
0d!
#22000000
0!
0b!
0c!
#22500000
1!
1b!
1c!
0f!
0W!
1d!
#23000000
0!
0b!
0c!
#23500000
1!
1b!
1c!
1f!
1W!
0d!
#24000000
0!
0b!
0c!
#24500000
1!
1b!
1c!
0f!
0W!
1d!
#25000000
0!
0b!
0c!
#25500000
1!
1b!
1c!
1f!
1W!
0d!
#26000000
0!
0b!
0c!
#26500000
1!
1b!
1c!
0f!
0W!
1d!
#27000000
0!
0b!
0c!
#27500000
1!
1b!
1c!
1f!
1W!
0d!
#28000000
0!
0b!
0c!
#28500000
1!
1b!
1c!
0f!
0W!
1d!
#29000000
0!
0b!
0c!
#29500000
1!
1b!
1c!
1f!
1W!
0d!
#30000000
0!
0b!
0c!
#30500000
1!
1b!
1c!
0f!
0W!
1d!
#31000000
0!
0b!
0c!
#31500000
1!
1b!
1c!
1f!
1W!
0d!
#32000000
0!
0b!
0c!
#32500000
1!
1b!
1c!
0f!
0W!
1d!
#33000000
0!
0b!
0c!
#33500000
1!
1b!
1c!
1f!
1W!
0d!
#34000000
0!
0b!
0c!
#34500000
1!
1b!
1c!
0f!
0W!
1d!
#35000000
0!
0b!
0c!
#35500000
1!
1b!
1c!
1f!
1W!
0d!
#36000000
0!
0b!
0c!
#36500000
1!
1b!
1c!
0f!
0W!
1d!
#37000000
0!
0b!
0c!
#37500000
1!
1b!
1c!
1f!
1W!
0d!
#38000000
0!
0b!
0c!
#38500000
1!
1b!
1c!
0f!
0W!
1d!
#39000000
0!
0b!
0c!
#39500000
1!
1b!
1c!
1f!
1W!
0d!
#40000000
0!
0b!
0c!
#40500000
1!
1b!
1c!
0f!
0W!
1d!
#41000000
0!
0b!
0c!
#41500000
1!
1b!
1c!
1f!
1W!
0d!
#42000000
0!
0b!
0c!
#42500000
1!
1b!
1c!
0f!
0W!
1d!
#43000000
0!
0b!
0c!
#43500000
1!
1b!
1c!
1f!
1W!
0d!
#44000000
0!
0b!
0c!
#44500000
1!
1b!
1c!
0f!
0W!
1d!
#45000000
0!
0b!
0c!
#45500000
1!
1b!
1c!
1f!
1W!
0d!
#46000000
0!
0b!
0c!
#46500000
1!
1b!
1c!
0f!
0W!
1d!
#47000000
0!
0b!
0c!
#47500000
1!
1b!
1c!
1f!
1W!
0d!
#48000000
0!
0b!
0c!
#48500000
1!
1b!
1c!
0f!
0W!
1d!
#49000000
0!
0b!
0c!
#49500000
1!
1b!
1c!
1f!
1W!
0d!
#50000000
0!
0b!
0c!
#50500000
1!
1b!
1c!
0f!
0W!
1d!
#51000000
0!
0b!
0c!
#51500000
1!
1b!
1c!
1f!
1W!
0d!
#52000000
0!
0b!
0c!
#52500000
1!
1b!
1c!
0f!
0W!
1d!
#53000000
0!
0b!
0c!
#53500000
1!
1b!
1c!
1f!
1W!
0d!
#54000000
0!
0b!
0c!
#54500000
1!
1b!
1c!
0f!
0W!
1d!
#55000000
0!
0b!
0c!
#55500000
1!
1b!
1c!
1f!
1W!
0d!
#56000000
0!
0b!
0c!
#56500000
1!
1b!
1c!
0f!
0W!
1d!
#57000000
0!
0b!
0c!
#57500000
1!
1b!
1c!
1f!
1W!
0d!
#58000000
0!
0b!
0c!
#58500000
1!
1b!
1c!
0f!
0W!
1d!
#59000000
0!
0b!
0c!
#59500000
1!
1b!
1c!
1f!
1W!
0d!
#60000000
0!
0b!
0c!
#60500000
1!
1b!
1c!
0f!
0W!
1d!
#61000000
0!
0b!
0c!
#61500000
1!
1b!
1c!
1f!
1W!
0d!
#62000000
0!
0b!
0c!
#62500000
1!
1b!
1c!
0f!
0W!
1d!
#63000000
0!
0b!
0c!
#63500000
1!
1b!
1c!
1f!
1W!
0d!
#64000000
0!
0b!
0c!
#64500000
1!
1b!
1c!
0f!
0W!
1d!
#65000000
0!
0b!
0c!
#65500000
1!
1b!
1c!
1f!
1W!
0d!
#66000000
0!
0b!
0c!
#66500000
1!
1b!
1c!
0f!
0W!
1d!
#67000000
0!
0b!
0c!
#67500000
1!
1b!
1c!
1f!
1W!
0d!
#68000000
0!
0b!
0c!
#68500000
1!
1b!
1c!
0f!
0W!
1d!
#69000000
0!
0b!
0c!
#69500000
1!
1b!
1c!
1f!
1W!
0d!
#70000000
0!
0b!
0c!
#70500000
1!
1b!
1c!
0f!
0W!
1d!
#71000000
0!
0b!
0c!
#71500000
1!
1b!
1c!
1f!
1W!
0d!
#72000000
0!
0b!
0c!
#72500000
1!
1b!
1c!
0f!
0W!
1d!
#73000000
0!
0b!
0c!
#73500000
1!
1b!
1c!
1f!
1W!
0d!
#74000000
0!
0b!
0c!
#74500000
1!
1b!
1c!
0f!
0W!
1d!
#75000000
0!
0b!
0c!
#75500000
1!
1b!
1c!
1f!
1W!
0d!
#76000000
0!
0b!
0c!
#76500000
1!
1b!
1c!
0f!
0W!
1d!
#77000000
0!
0b!
0c!
#77500000
1!
1b!
1c!
1f!
1W!
0d!
#78000000
0!
0b!
0c!
#78500000
1!
1b!
1c!
0f!
0W!
1d!
#79000000
0!
0b!
0c!
#79500000
1!
1b!
1c!
1f!
1W!
0d!
#80000000
0!
0b!
0c!
#80500000
1!
1b!
1c!
0f!
0W!
1d!
#81000000
0!
0b!
0c!
#81500000
1!
1b!
1c!
1f!
1W!
0d!
#82000000
0!
0b!
0c!
#82500000
1!
1b!
1c!
0f!
0W!
1d!
#83000000
0!
0b!
0c!
#83500000
1!
1b!
1c!
1f!
1W!
0d!
#84000000
0!
0b!
0c!
#84500000
1!
1b!
1c!
0f!
0W!
1d!
#85000000
0!
0b!
0c!
#85500000
1!
1b!
1c!
1f!
1W!
0d!
#86000000
0!
0b!
0c!
#86500000
1!
1b!
1c!
0f!
0W!
1d!
#87000000
0!
0b!
0c!
#87500000
1!
1b!
1c!
1f!
1W!
0d!
#88000000
0!
0b!
0c!
#88500000
1!
1b!
1c!
0f!
0W!
1d!
#89000000
0!
0b!
0c!
#89500000
1!
1b!
1c!
1f!
1W!
0d!
#90000000
0!
0b!
0c!
#90500000
1!
1b!
1c!
0f!
0W!
1d!
#91000000
0!
0b!
0c!
#91500000
1!
1b!
1c!
1f!
1W!
0d!
#92000000
0!
0b!
0c!
#92500000
1!
1b!
1c!
0f!
0W!
1d!
#93000000
0!
0b!
0c!
#93500000
1!
1b!
1c!
1f!
1W!
0d!
#94000000
0!
0b!
0c!
#94500000
1!
1b!
1c!
0f!
0W!
1d!
#95000000
0!
0b!
0c!
#95500000
1!
1b!
1c!
1f!
1W!
0d!
#96000000
0!
0b!
0c!
#96500000
1!
1b!
1c!
0f!
0W!
1d!
#97000000
0!
0b!
0c!
#97500000
1!
1b!
1c!
1f!
1W!
0d!
#98000000
0!
0b!
0c!
#98500000
1!
1b!
1c!
0f!
0W!
1d!
#99000000
0!
0b!
0c!
#99500000
1!
1b!
1c!
1f!
1W!
0d!
